1. 변수 : 데이터(값)를 저장할 메모리 기억공간 ▶ 데이터를 담는 상자 : 크기 → Data Type(자료형)
	○ 기억공간(변수)에는 이름이 있어야 한다 ▶ 식별자
		- 반드시 영문자 소문자로 시작
		- 단어가 중복될 경우 단어의 첫글자를 대문자 처리
		- 길이에 제한이 없으므로, 가급적이면 이름에 의미가 나타나도록 하자
		- 예약어(KeyWord)는 사용 불가
		- 변수명에 사용할 수 있는 특수문자 : '_', '$'
		
2. 자료형(Data Type) : 변수의 크기와 저장할 수 있는 데이터의 종류를 결정
	① 기본자료형(PDT)
		- 정수형 : byte(1), short(2), int(4), long(8)
		- 실수형 : float(4), double(8)
		- 문자형(단일문자) : char(2)
		- 논리형(부울형) : boolean(1)
		
	② 사용자정의 자료형(UDDT) : 사용자가 직접 정의하여 사용하는 자료형 ▶ Reference Type(4Byte)
		(참조자료형)
		- 클래스 타입
		- 인터페이스 타입
		- 배열(열거) 타입

3. 변수의 사용과 관련된 용어 : 선언, 할당, 재할당, 초기화, 나열