요구사항 정리--
	○ tblBook.sql : (book.sql) com.hanul.study
		- 테이블명 : book.sql
		- 제목   title varchar2(30)
		- 저자  auth varchar2(20)
		- ISBN isbn varchar2(20) PK, not null
		- 출판사 comp varchar2(20)
		- 단가 cost number
		- 수량  su number
		- 금액  price number
	○ bookDTO.java : com.hanul.study package
		- 직렬화
		- 멤버변수(필드) 선언
		- 디폴트 생성자 메소드
		- 생성자 메소드 초기화
		- Getter& Setter 메소드
	○ bookDAO.java : com.hanul.study package
		- DB접속 : getConn();
		- ISBN:기본키 설정되어있음 ==> 중복체크(checkIsbn)
		- 도서정보입력 : insert()
		- 전체도서목록 : getAllList()
		- 특정도서 삭제 : delete()
	○ bookMain.html : webcontent
		- 입력화면 설계
		- 각 항목은 반드시 입력되어야 한다.
		- ISBN 코드 형식 : 000-00-0000-000-0
		- ISBN 중복검사 
		- 단가 와 수량은 숫자만 입력가능함.
	○ Servlet.java: default package
		- ISBN 중복검사 : CHeckIsbnServlet.java(cis.do)
		- 도서 정보입력 : insertServlet.java(is.do)
		- 전체 도서 목록보기 :getAllListServlet.java(gals.do)
		- 도서정보 삭제: DeleteServlet.java(ds.do)
		
		